Part (mu^+) Info - X [m], Y [m], Z [m], Px [GeV], Py [GeV], Pz [GeV], Error
0.0 ,  0.0 ,  0.0 ,  0.0 ,  0.1 ,  0.0 ,  0
Part#, Row, Col, layer#, Segment#, Error
0, 259, 402, 0, 64, 0
0, 260, 402, 0, 64, 0
0, 261, 402, 0, 64, 0
0, 182, 804, 1, 73, 0
0, 183, 804, 1, 73, 0
0, 184, 804, 1, 73, 0
0, 617, 804, 2, 162, 0
0, 618, 804, 2, 162, 0
0, 619, 804, 2, 162, 0
0, 620, 804, 2, 162, 0
0, 621, 804, 2, 162, 0
0, 622, 804, 2, 162, 0
0, 623, 804, 2, 162, 0
0, 624, 804, 2, 162, 0
0, 625, 804, 2, 162, 0
0, 626, 804, 2, 162, 0
0, 8, 804, 2, 163, 0
0, 9, 804, 2, 163, 0
0, 10, 804, 2, 163, 0
0, 11, 804, 2, 163, 0
0, 12, 804, 2, 163, 0
0, 13, 804, 2, 163, 0
0, 14, 804, 2, 163, 0
0, 15, 804, 2, 163, 0
0, 229, 804, 3, 269, 0
0, 230, 804, 3, 269, 0
0, 231, 804, 3, 269, 0
0, 232, 804, 3, 269, 0
0, 233, 804, 3, 269, 0
0, 234, 804, 3, 269, 0
0, 235, 804, 3, 269, 0
0, 236, 804, 3, 269, 0
0, 237, 804, 3, 269, 0
0, 238, 804, 3, 269, 0
0, 239, 804, 3, 269, 0
0, 240, 804, 3, 269, 0
0, 241, 804, 3, 269, 0
0, 392, 804, 4, 386, 0
0, 393, 804, 4, 386, 0
0, 394, 804, 4, 386, 0
0, 395, 804, 4, 386, 0
0, 396, 804, 4, 386, 0
0, 397, 804, 4, 386, 0
0, 398, 804, 4, 386, 0
0, 399, 804, 4, 386, 0
0, 400, 804, 4, 386, 0
0, 401, 804, 4, 386, 0
0, 402, 804, 4, 386, 0
0, 403, 804, 4, 386, 0
0, 404, 804, 4, 386, 0
0, 405, 804, 4, 386, 0
0, 406, 804, 4, 386, 0
0, 407, 804, 4, 386, 0
0, 408, 804, 4, 386, 0
0, 409, 804, 4, 386, 0
0, 410, 804, 4, 386, 0
0, 411, 804, 4, 386, 0
0, 412, 804, 4, 386, 0
0, 413, 804, 4, 386, 0
Part (mu^+) Info - X [m], Y [m], Z [m], Px [GeV], Py [GeV], Pz [GeV], Error
0.0 ,  0.0 ,  0.0 ,  0.0 ,  0.2 ,  0.0 ,  0
Part#, Row, Col, layer#, Segment#, Error
1, 213, 402, 0, 64, 0
1, 214, 402, 0, 64, 0
1, 557, 804, 1, 72, 0
1, 558, 804, 1, 72, 0
1, 559, 804, 1, 72, 0
1, 454, 804, 2, 161, 0
1, 455, 804, 2, 161, 0
1, 456, 804, 2, 161, 0
1, 457, 804, 2, 161, 0
1, 458, 804, 2, 161, 0
1, 501, 804, 3, 266, 0
1, 502, 804, 3, 266, 0
1, 503, 804, 3, 266, 0
1, 504, 804, 3, 266, 0
1, 505, 804, 3, 266, 0
1, 506, 804, 3, 266, 0
1, 507, 804, 3, 266, 0
1, 76, 804, 4, 382, 0
1, 77, 804, 4, 382, 0
1, 78, 804, 4, 382, 0
1, 79, 804, 4, 382, 0
1, 80, 804, 4, 382, 0
1, 81, 804, 4, 382, 0
1, 82, 804, 4, 382, 0
Part (mu^+) Info - X [m], Y [m], Z [m], Px [GeV], Py [GeV], Pz [GeV], Error
0.0 ,  0.0 ,  0.0 ,  0.0 ,  0.3 ,  0.0 ,  0
Part#, Row, Col, layer#, Segment#, Error
2, 198, 402, 0, 64, 0
2, 199, 402, 0, 64, 0
2, 483, 804, 1, 72, 0
2, 484, 804, 1, 72, 0
2, 211, 804, 2, 161, 0
2, 212, 804, 2, 161, 0
2, 213, 804, 2, 161, 0
2, 643, 804, 3, 265, 0
2, 644, 804, 3, 265, 0
2, 645, 804, 3, 265, 0
2, 646, 804, 3, 265, 0
2, 647, 804, 3, 265, 0
2, 648, 804, 3, 265, 0
2, 35, 804, 3, 266, 0
2, 36, 804, 3, 266, 0
2, 37, 804, 3, 266, 0
2, 559, 804, 4, 380, 0
2, 560, 804, 4, 380, 0
2, 561, 804, 4, 380, 0
2, 562, 804, 4, 380, 0
2, 563, 804, 4, 380, 0
2, 564, 804, 4, 380, 0
2, 565, 804, 4, 380, 0
Part (mu^+) Info - X [m], Y [m], Z [m], Px [GeV], Py [GeV], Pz [GeV], Error
0.0 ,  0.0 ,  0.0 ,  0.0 ,  0.4 ,  0.0 ,  0
Part#, Row, Col, layer#, Segment#, Error
3, 191, 402, 0, 64, 0
3, 447, 804, 1, 72, 0
3, 448, 804, 1, 72, 0
3, 91, 804, 2, 161, 0
3, 92, 804, 2, 161, 0
3, 411, 804, 3, 265, 0
3, 412, 804, 3, 265, 0
3, 413, 804, 3, 265, 0
3, 414, 804, 3, 265, 0
3, 183, 804, 4, 380, 0
3, 184, 804, 4, 380, 0
3, 185, 804, 4, 380, 0
3, 186, 804, 4, 380, 0
Part (mu^+) Info - X [m], Y [m], Z [m], Px [GeV], Py [GeV], Pz [GeV], Error
0.0 ,  0.0 ,  0.0 ,  0.0 ,  0.5 ,  0.0 ,  0
Part#, Row, Col, layer#, Segment#, Error
4, 186, 402, 0, 64, 0
4, 425, 804, 1, 72, 0
4, 426, 804, 1, 72, 0
4, 628, 804, 2, 160, 0
4, 629, 804, 2, 160, 0
4, 630, 804, 2, 160, 0
4, 19, 804, 2, 161, 0
4, 275, 804, 3, 265, 0
4, 276, 804, 3, 265, 0
4, 277, 804, 3, 265, 0
4, 591, 804, 4, 379, 0
4, 592, 804, 4, 379, 0
4, 593, 804, 4, 379, 0
4, 594, 804, 4, 379, 0
4, 595, 804, 4, 379, 0
Part (mu^+) Info - X [m], Y [m], Z [m], Px [GeV], Py [GeV], Pz [GeV], Error
0.0 ,  0.0 ,  0.0 ,  0.0 ,  0.6 ,  0.0 ,  0
Part#, Row, Col, layer#, Segment#, Error
5, 183, 402, 0, 64, 0
5, 411, 804, 1, 72, 0
5, 580, 804, 2, 160, 0
5, 581, 804, 2, 160, 0
5, 185, 804, 3, 265, 0
5, 186, 804, 3, 265, 0
5, 443, 804, 4, 379, 0
5, 444, 804, 4, 379, 0
5, 445, 804, 4, 379, 0
5, 446, 804, 4, 379, 0
Part (mu^+) Info - X [m], Y [m], Z [m], Px [GeV], Py [GeV], Pz [GeV], Error
0.0 ,  0.0 ,  0.0 ,  0.0 ,  0.7 ,  0.0 ,  0
Part#, Row, Col, layer#, Segment#, Error
6, 181, 402, 0, 64, 0
6, 400, 804, 1, 72, 0
6, 401, 804, 1, 72, 0
6, 545, 804, 2, 160, 0
6, 546, 804, 2, 160, 0
6, 547, 804, 2, 160, 0
6, 120, 804, 3, 265, 0
6, 121, 804, 3, 265, 0
6, 338, 804, 4, 379, 0
6, 339, 804, 4, 379, 0
6, 340, 804, 4, 379, 0
Part (mu^+) Info - X [m], Y [m], Z [m], Px [GeV], Py [GeV], Pz [GeV], Error
0.0 ,  0.0 ,  0.0 ,  0.0 ,  0.8 ,  0.0 ,  0
Part#, Row, Col, layer#, Segment#, Error
7, 179, 402, 0, 64, 0
7, 392, 804, 1, 72, 0
7, 393, 804, 1, 72, 0
7, 519, 804, 2, 160, 0
7, 520, 804, 2, 160, 0
7, 72, 804, 3, 265, 0
7, 259, 804, 4, 379, 0
7, 260, 804, 4, 379, 0
7, 261, 804, 4, 379, 0
Part (mu^+) Info - X [m], Y [m], Z [m], Px [GeV], Py [GeV], Pz [GeV], Error
0.0 ,  0.0 ,  0.0 ,  0.0 ,  0.9 ,  0.0 ,  0
Part#, Row, Col, layer#, Segment#, Error
8, 178, 402, 0, 64, 0
8, 386, 804, 1, 72, 0
8, 387, 804, 1, 72, 0
8, 499, 804, 2, 160, 0
8, 500, 804, 2, 160, 0
8, 642, 804, 3, 264, 0
8, 643, 804, 3, 264, 0
8, 644, 804, 3, 264, 0
8, 34, 804, 3, 265, 0
8, 198, 804, 4, 379, 0
8, 199, 804, 4, 379, 0
8, 200, 804, 4, 379, 0
Part (mu^+) Info - X [m], Y [m], Z [m], Px [GeV], Py [GeV], Pz [GeV], Error
0.0 ,  0.0 ,  0.0 ,  0.0 ,  1.0 ,  0.0 ,  0
Part#, Row, Col, layer#, Segment#, Error
9, 177, 402, 0, 64, 0
9, 382, 804, 1, 72, 0
9, 483, 804, 2, 160, 0
9, 484, 804, 2, 160, 0
9, 612, 804, 3, 264, 0
9, 613, 804, 3, 264, 0
9, 4, 804, 3, 265, 0
9, 3, 804, 3, 265, 0
9, 150, 804, 4, 379, 0
9, 151, 804, 4, 379, 0
Part (mu^+) Info - X [m], Y [m], Z [m], Px [GeV], Py [GeV], Pz [GeV], Error
0.0 ,  0.0 ,  0.0 ,  0.0 ,  0.1 ,  0.1 ,  0
Part#, Row, Col, layer#, Segment#, Error
10, 259, 380, 0, 80, 0
10, 259, 381, 0, 80, 0
10, 260, 382, 0, 80, 0
10, 260, 383, 0, 80, 0
10, 260, 384, 0, 80, 0
10, 260, 385, 0, 80, 0
10, 260, 386, 0, 80, 0
10, 261, 386, 0, 80, 0
10, 261, 387, 0, 80, 0
10, 261, 388, 0, 80, 0
10, 261, 389, 0, 80, 0
10, 261, 390, 0, 80, 0
10, 182, 112, 1, 127, 0
10, 182, 113, 1, 127, 0
10, 183, 114, 1, 127, 0
10, 183, 115, 1, 127, 0
10, 183, 116, 1, 127, 0
10, 183, 117, 1, 127, 0
10, 183, 118, 1, 127, 0
10, 183, 119, 1, 127, 0
10, 183, 120, 1, 127, 0
10, 184, 120, 1, 127, 0
10, 184, 121, 1, 127, 0
10, 184, 122, 1, 127, 0
10, 617, 11, 2, 322, 1
10, 617, 12, 2, 322, 1
10, 618, 13, 2, 322, 1
10, 618, 14, 2, 322, 1
10, 619, 15, 2, 322, 1
10, 619, 16, 2, 322, 1
10, 620, 16, 2, 322, 1
10, 620, 17, 2, 322, 1
10, 621, 18, 2, 322, 1
10, 621, 19, 2, 322, 1
10, 621, 20, 2, 322, 1
10, 622, 20, 2, 322, 1
10, 622, 21, 2, 322, 1
10, 623, 22, 2, 322, 1
10, 623, 23, 2, 322, 1
10, 624, 24, 2, 322, 1
10, 624, 25, 2, 322, 1
10, 625, 25, 2, 322, 1
10, 625, 26, 2, 322, 1
10, 625, 27, 2, 322, 1
10, 626, 28, 2, 322, 1
10, 626, 29, 2, 322, 1
10, 8, 11, 2, 323, 1
10, 8, 12, 2, 323, 1
10, 9, 13, 2, 323, 1
10, 9, 14, 2, 323, 1
10, 9, 15, 2, 323, 1
10, 10, 16, 2, 323, 1
10, 10, 17, 2, 323, 1
10, 11, 18, 2, 323, 1
10, 11, 19, 2, 323, 1
10, 11, 20, 2, 323, 1
10, 12, 21, 2, 323, 1
10, 12, 22, 2, 323, 1
10, 12, 23, 2, 323, 1
10, 13, 24, 2, 323, 1
10, 13, 25, 2, 323, 1
10, 13, 26, 2, 323, 1
10, 14, 27, 2, 323, 1
10, 14, 28, 2, 323, 1
10, 15, 29, 2, 323, 1
10, 229, 585, 3, 533, 0
10, 230, 586, 3, 533, 0
10, 230, 587, 3, 533, 0
10, 231, 588, 3, 533, 0
10, 231, 589, 3, 533, 0
10, 232, 589, 3, 533, 0
10, 232, 590, 3, 533, 0
10, 233, 591, 3, 533, 0
10, 233, 592, 3, 533, 0
10, 234, 592, 3, 533, 0
10, 234, 593, 3, 533, 0
10, 235, 594, 3, 533, 0
10, 235, 595, 3, 533, 0
10, 236, 596, 3, 533, 0
10, 236, 597, 3, 533, 0
10, 237, 597, 3, 533, 0
10, 237, 598, 3, 533, 0
10, 238, 599, 3, 533, 0
10, 238, 600, 3, 533, 0
10, 239, 601, 3, 533, 0
10, 240, 602, 3, 533, 0
10, 240, 603, 3, 533, 0
10, 241, 604, 3, 533, 0
10, 241, 605, 3, 533, 0
10, 392, 666, 4, 818, 0
10, 392, 667, 4, 818, 0
10, 393, 668, 4, 818, 0
10, 393, 669, 4, 818, 0
10, 394, 669, 4, 818, 0
10, 394, 670, 4, 818, 0
10, 395, 670, 4, 818, 0
10, 395, 671, 4, 818, 0
10, 396, 671, 4, 818, 0
10, 396, 672, 4, 818, 0
10, 397, 672, 4, 818, 0
10, 397, 673, 4, 818, 0
10, 398, 674, 4, 818, 0
10, 398, 675, 4, 818, 0
10, 399, 675, 4, 818, 0
10, 399, 676, 4, 818, 0
10, 400, 676, 4, 818, 0
10, 400, 677, 4, 818, 0
10, 401, 678, 4, 818, 0
10, 402, 679, 4, 818, 0
10, 403, 680, 4, 818, 0
10, 404, 681, 4, 818, 0
10, 404, 682, 4, 818, 0
10, 405, 683, 4, 818, 0
10, 406, 684, 4, 818, 0
10, 407, 685, 4, 818, 0
10, 407, 686, 4, 818, 0
10, 408, 686, 4, 818, 0
10, 408, 687, 4, 818, 0
10, 409, 687, 4, 818, 0
10, 409, 688, 4, 818, 0
10, 410, 688, 4, 818, 0
10, 410, 689, 4, 818, 0
10, 411, 690, 4, 818, 0
10, 411, 691, 4, 818, 0
10, 412, 691, 4, 818, 0
10, 412, 692, 4, 818, 0
10, 413, 692, 4, 818, 0
Part (mu^+) Info - X [m], Y [m], Z [m], Px [GeV], Py [GeV], Pz [GeV], Error
0.0 ,  0.0 ,  0.0 ,  0.0 ,  0.2 ,  0.1 ,  0
Part#, Row, Col, layer#, Segment#, Error
11, 213, 790, 0, 64, 0
11, 213, 791, 0, 64, 0
11, 213, 792, 0, 64, 0
11, 214, 792, 0, 64, 0
11, 214, 793, 0, 64, 0
11, 214, 794, 0, 64, 0
11, 557, 52, 1, 108, 0
11, 557, 53, 1, 108, 0
11, 558, 54, 1, 108, 0
11, 558, 55, 1, 108, 0
11, 559, 56, 1, 108, 0
11, 559, 57, 1, 108, 0
11, 454, 757, 2, 225, 0
11, 454, 758, 2, 225, 0
11, 455, 758, 2, 225, 0
11, 455, 759, 2, 225, 0
11, 455, 760, 2, 225, 0
11, 456, 761, 2, 225, 0
11, 456, 762, 2, 225, 0
11, 457, 762, 2, 225, 0
11, 457, 763, 2, 225, 0
11, 458, 764, 2, 225, 0
11, 458, 765, 2, 225, 0
11, 501, 556, 3, 398, 0
11, 501, 557, 3, 398, 0
11, 502, 557, 3, 398, 0
11, 502, 558, 3, 398, 0
11, 503, 558, 3, 398, 0
11, 503, 559, 3, 398, 0
11, 503, 560, 3, 398, 0
11, 504, 560, 3, 398, 0
11, 504, 561, 3, 398, 0
11, 505, 561, 3, 398, 0
11, 505, 562, 3, 398, 0
11, 506, 563, 3, 398, 0
11, 506, 564, 3, 398, 0
11, 507, 564, 3, 398, 0
11, 507, 565, 3, 398, 0
11, 76, 376, 4, 598, 0
11, 77, 377, 4, 598, 0
11, 78, 378, 4, 598, 0
11, 78, 379, 4, 598, 0
11, 79, 380, 4, 598, 0
11, 80, 381, 4, 598, 0
11, 80, 382, 4, 598, 0
11, 81, 383, 4, 598, 0
11, 82, 384, 4, 598, 0
Part (mu^+) Info - X [m], Y [m], Z [m], Px [GeV], Py [GeV], Pz [GeV], Error
0.0 ,  0.0 ,  0.0 ,  0.0 ,  0.3 ,  0.1 ,  0
Part#, Row, Col, layer#, Segment#, Error
12, 198, 660, 0, 64, 0
12, 198, 661, 0, 64, 0
12, 198, 662, 0, 64, 0
12, 199, 663, 0, 64, 0
12, 483, 567, 1, 90, 0
12, 483, 568, 1, 90, 0
12, 483, 569, 1, 90, 0
12, 484, 569, 1, 90, 0
12, 484, 570, 1, 90, 0
12, 211, 231, 2, 225, 0
12, 211, 232, 2, 225, 0
12, 211, 233, 2, 225, 0
12, 212, 234, 2, 225, 0
12, 212, 235, 2, 225, 0
12, 212, 236, 2, 225, 0
12, 213, 236, 2, 225, 0
12, 643, 627, 3, 353, 0
12, 644, 628, 3, 353, 0
12, 645, 629, 3, 353, 0
12, 645, 630, 3, 353, 0
12, 646, 630, 3, 353, 0
12, 646, 631, 3, 353, 0
12, 647, 632, 3, 353, 0
12, 648, 633, 3, 353, 0
12, 35, 627, 3, 354, 0
12, 35, 628, 3, 354, 0
12, 36, 629, 3, 354, 0
12, 36, 630, 3, 354, 0
12, 37, 631, 3, 354, 0
12, 37, 632, 3, 354, 0
12, 37, 633, 3, 354, 0
12, 559, 219, 4, 542, 0
12, 560, 219, 4, 542, 0
12, 560, 220, 4, 542, 0
12, 561, 221, 4, 542, 0
12, 562, 222, 4, 542, 0
12, 563, 223, 4, 542, 0
12, 564, 224, 4, 542, 0
12, 564, 225, 4, 542, 0
12, 565, 225, 4, 542, 0
Part (mu^+) Info - X [m], Y [m], Z [m], Px [GeV], Py [GeV], Pz [GeV], Error
0.0 ,  0.0 ,  0.0 ,  0.0 ,  0.4 ,  0.1 ,  0
Part#, Row, Col, layer#, Segment#, Error
13, 191, 596, 0, 64, 0
13, 191, 597, 0, 64, 0
13, 447, 425, 1, 90, 0
13, 447, 426, 1, 90, 0
13, 448, 427, 1, 90, 0
13, 91, 776, 2, 193, 0
13, 91, 777, 2, 193, 0
13, 91, 778, 2, 193, 0
13, 91, 779, 2, 193, 0
13, 91, 780, 2, 193, 0
13, 92, 780, 2, 193, 0
13, 92, 781, 2, 193, 0
13, 411, 263, 3, 353, 0
13, 412, 264, 3, 353, 0
13, 413, 265, 3, 353, 0
13, 413, 266, 3, 353, 0
13, 414, 266, 3, 353, 0
13, 414, 267, 3, 353, 0
13, 183, 558, 4, 488, 0
13, 184, 558, 4, 488, 0
13, 184, 559, 4, 488, 0
13, 184, 560, 4, 488, 0
13, 185, 560, 4, 488, 0
13, 185, 561, 4, 488, 0
13, 186, 561, 4, 488, 0
13, 186, 562, 4, 488, 0
Part (mu^+) Info - X [m], Y [m], Z [m], Px [GeV], Py [GeV], Pz [GeV], Error
0.0 ,  0.0 ,  0.0 ,  0.0 ,  0.5 ,  0.1 ,  0
Part#, Row, Col, layer#, Segment#, Error
14, 186, 557, 0, 64, 0
14, 186, 558, 0, 64, 0
14, 425, 339, 1, 90, 0
14, 425, 340, 1, 90, 0
14, 426, 341, 1, 90, 0
14, 628, 622, 2, 192, 0
14, 629, 622, 2, 192, 0
14, 629, 623, 2, 192, 0
14, 630, 624, 2, 192, 0
14, 19, 621, 2, 193, 0
14, 19, 622, 2, 193, 0
14, 19, 623, 2, 193, 0
14, 19, 624, 2, 193, 0
14, 19, 625, 2, 193, 0
14, 275, 48, 3, 353, 0
14, 275, 49, 3, 353, 0
14, 276, 50, 3, 353, 0
14, 276, 51, 3, 353, 0
14, 277, 51, 3, 353, 0
14, 277, 52, 3, 353, 0
14, 591, 284, 4, 487, 0
14, 592, 284, 4, 487, 0
14, 593, 285, 4, 487, 0
14, 594, 286, 4, 487, 0
14, 595, 287, 4, 487, 0
Part (mu^+) Info - X [m], Y [m], Z [m], Px [GeV], Py [GeV], Pz [GeV], Error
0.0 ,  0.0 ,  0.0 ,  0.0 ,  0.6 ,  0.1 ,  0
Part#, Row, Col, layer#, Segment#, Error
15, 183, 531, 0, 64, 0
15, 183, 532, 0, 64, 0
15, 411, 283, 1, 90, 0
15, 411, 284, 1, 90, 0
15, 580, 517, 2, 192, 0
15, 580, 518, 2, 192, 0
15, 581, 519, 2, 192, 0
15, 185, 710, 3, 309, 0
15, 185, 711, 3, 309, 0
15, 185, 712, 3, 309, 0
15, 186, 713, 3, 309, 0
15, 443, 100, 4, 487, 0
15, 444, 101, 4, 487, 0
15, 445, 102, 4, 487, 0
15, 446, 103, 4, 487, 0
Part (mu^+) Info - X [m], Y [m], Z [m], Px [GeV], Py [GeV], Pz [GeV], Error
0.0 ,  0.0 ,  0.0 ,  0.0 ,  0.7 ,  0.1 ,  0
Part#, Row, Col, layer#, Segment#, Error
16, 181, 513, 0, 64, 0
16, 400, 242, 1, 90, 0
16, 400, 243, 1, 90, 0
16, 401, 243, 1, 90, 0
16, 545, 443, 2, 192, 0
16, 546, 444, 2, 192, 0
16, 547, 445, 2, 192, 0
16, 120, 608, 3, 309, 0
16, 120, 609, 3, 309, 0
16, 120, 610, 3, 309, 0
16, 121, 611, 3, 309, 0
16, 338, 774, 4, 433, 0
16, 338, 775, 4, 433, 0
16, 339, 775, 4, 433, 0
16, 339, 776, 4, 433, 0
16, 340, 776, 4, 433, 0
16, 340, 777, 4, 433, 0
Part (mu^+) Info - X [m], Y [m], Z [m], Px [GeV], Py [GeV], Pz [GeV], Error
0.0 ,  0.0 ,  0.0 ,  0.0 ,  0.8 ,  0.1 ,  0
Part#, Row, Col, layer#, Segment#, Error
17, 179, 499, 0, 64, 0
17, 392, 212, 1, 90, 0
17, 393, 212, 1, 90, 0
17, 519, 387, 2, 192, 0
17, 520, 388, 2, 192, 0
17, 72, 532, 3, 309, 0
17, 72, 533, 3, 309, 0
17, 72, 534, 3, 309, 0
17, 72, 535, 3, 309, 0
17, 259, 677, 4, 433, 0
17, 260, 678, 4, 433, 0
17, 261, 679, 4, 433, 0
Part (mu^+) Info - X [m], Y [m], Z [m], Px [GeV], Py [GeV], Pz [GeV], Error
0.0 ,  0.0 ,  0.0 ,  0.0 ,  0.9 ,  0.1 ,  0
Part#, Row, Col, layer#, Segment#, Error
18, 178, 488, 0, 64, 0
18, 386, 188, 1, 90, 0
18, 387, 189, 1, 90, 0
18, 499, 344, 2, 192, 0
18, 500, 345, 2, 192, 0
18, 642, 474, 3, 308, 0
18, 643, 474, 3, 308, 0
18, 644, 475, 3, 308, 0
18, 34, 473, 3, 309, 0
18, 34, 474, 3, 309, 0
18, 34, 475, 3, 309, 0
18, 198, 601, 4, 433, 0
18, 199, 602, 4, 433, 0
18, 199, 603, 4, 433, 0
18, 200, 604, 4, 433, 0
Part (mu^+) Info - X [m], Y [m], Z [m], Px [GeV], Py [GeV], Pz [GeV], Error
0.0 ,  0.0 ,  0.0 ,  0.0 ,  1.0 ,  0.1 ,  0
Part#, Row, Col, layer#, Segment#, Error
19, 177, 479, 0, 64, 0
19, 177, 480, 0, 64, 0
19, 382, 169, 1, 90, 0
19, 382, 170, 1, 90, 0
19, 483, 310, 2, 192, 0
19, 484, 310, 2, 192, 0
19, 484, 311, 2, 192, 0
19, 612, 426, 3, 308, 0
19, 613, 427, 3, 308, 0
19, 4, 425, 3, 309, 0
19, 4, 426, 3, 309, 0
19, 4, 427, 3, 309, 0
19, 3, 428, 3, 309, 0
19, 150, 541, 4, 433, 0
19, 150, 542, 4, 433, 0
19, 150, 543, 4, 433, 0
19, 151, 544, 4, 433, 0
Part (mu^+) Info - X [m], Y [m], Z [m], Px [GeV], Py [GeV], Pz [GeV], Error
0.0 ,  0.0 ,  0.0 ,  0.0 ,  0.1 ,  0.2 ,  0
Part#, Row, Col, layer#, Segment#, Error
20, 259, 359, 0, 96, 0
20, 259, 360, 0, 96, 0
20, 259, 361, 0, 96, 0
20, 260, 362, 0, 96, 0
20, 260, 363, 0, 96, 0
20, 260, 364, 0, 96, 0
20, 260, 365, 0, 96, 0
20, 260, 366, 0, 96, 0
20, 260, 368, 0, 96, 0
20, 260, 369, 0, 96, 0
20, 260, 370, 0, 96, 0
20, 261, 371, 0, 96, 0
20, 261, 372, 0, 96, 0
20, 261, 373, 0, 96, 0
20, 261, 374, 0, 96, 0
20, 261, 376, 0, 96, 0
20, 261, 377, 0, 96, 0
20, 261, 378, 0, 96, 0
20, 182, 224, 1, 163, 0
20, 182, 225, 1, 163, 0
20, 182, 226, 1, 163, 0
20, 182, 227, 1, 163, 0
20, 183, 228, 1, 163, 0
20, 183, 229, 1, 163, 0
20, 183, 230, 1, 163, 0
20, 183, 232, 1, 163, 0
20, 183, 233, 1, 163, 0
20, 183, 234, 1, 163, 0
20, 183, 235, 1, 163, 0
20, 183, 236, 1, 163, 0
20, 183, 237, 1, 163, 0
20, 183, 238, 1, 163, 0
20, 183, 240, 1, 163, 0
20, 184, 241, 1, 163, 0
20, 184, 242, 1, 163, 0
20, 184, 243, 1, 163, 0
20, 184, 244, 1, 163, 0
20, 184, 245, 1, 163, 0
Part (mu^+) Info - X [m], Y [m], Z [m], Px [GeV], Py [GeV], Pz [GeV], Error
0.0 ,  0.0 ,  0.0 ,  0.0 ,  0.2 ,  0.2 ,  0
Part#, Row, Col, layer#, Segment#, Error
21, 213, 374, 0, 80, 0
21, 213, 375, 0, 80, 0
21, 213, 377, 0, 80, 0
21, 213, 378, 0, 80, 0
21, 214, 379, 0, 80, 0
21, 214, 380, 0, 80, 0
21, 214, 381, 0, 80, 0
21, 214, 382, 0, 80, 0
21, 214, 383, 0, 80, 0
21, 557, 105, 1, 126, 0
21, 557, 106, 1, 126, 0
21, 558, 108, 1, 126, 0
21, 558, 109, 1, 126, 0
21, 558, 110, 1, 126, 0
21, 558, 111, 1, 126, 0
21, 559, 112, 1, 126, 0
21, 559, 113, 1, 126, 0
21, 559, 114, 1, 126, 0
21, 454, 710, 2, 289, 0
21, 454, 711, 2, 289, 0
21, 454, 712, 2, 289, 0
21, 455, 713, 2, 289, 0
21, 455, 714, 2, 289, 0
21, 455, 715, 2, 289, 0
21, 455, 716, 2, 289, 0
21, 456, 718, 2, 289, 0
21, 456, 719, 2, 289, 0
21, 456, 720, 2, 289, 0
21, 457, 721, 2, 289, 0
21, 457, 722, 2, 289, 0
21, 457, 723, 2, 289, 0
21, 458, 724, 2, 289, 0
21, 458, 725, 2, 289, 0
21, 501, 309, 3, 530, 0
21, 501, 310, 3, 530, 0
21, 502, 311, 3, 530, 0
21, 502, 312, 3, 530, 0
21, 503, 313, 3, 530, 0
21, 503, 315, 3, 530, 0
21, 503, 316, 3, 530, 0
21, 504, 317, 3, 530, 0
21, 504, 318, 3, 530, 0
21, 505, 319, 3, 530, 0
21, 505, 320, 3, 530, 0
21, 505, 321, 3, 530, 0
21, 506, 322, 3, 530, 0
21, 506, 324, 3, 530, 0
21, 507, 325, 3, 530, 0
21, 507, 326, 3, 530, 0
21, 76, 752, 4, 760, 0
21, 76, 753, 4, 760, 0
21, 77, 754, 4, 760, 0
21, 77, 755, 4, 760, 0
21, 78, 756, 4, 760, 0
21, 78, 758, 4, 760, 0
21, 78, 759, 4, 760, 0
21, 79, 760, 4, 760, 0
21, 79, 761, 4, 760, 0
21, 80, 762, 4, 760, 0
21, 80, 763, 4, 760, 0
21, 80, 764, 4, 760, 0
21, 81, 766, 4, 760, 0
21, 81, 767, 4, 760, 0
21, 82, 768, 4, 760, 0
21, 82, 769, 4, 760, 0
Part (mu^+) Info - X [m], Y [m], Z [m], Px [GeV], Py [GeV], Pz [GeV], Error
0.0 ,  0.0 ,  0.0 ,  0.0 ,  0.3 ,  0.2 ,  0
Part#, Row, Col, layer#, Segment#, Error
22, 198, 115, 0, 80, 0
22, 198, 117, 0, 80, 0
22, 198, 118, 0, 80, 0
22, 198, 119, 0, 80, 0
22, 199, 120, 0, 80, 0
22, 199, 121, 0, 80, 0
22, 483, 331, 1, 108, 0
22, 483, 332, 1, 108, 0
22, 483, 333, 1, 108, 0
22, 484, 335, 1, 108, 0
22, 484, 336, 1, 108, 0
22, 484, 337, 1, 108, 0
22, 211, 462, 2, 257, 0
22, 211, 463, 2, 257, 0
22, 211, 464, 2, 257, 0
22, 211, 465, 2, 257, 0
22, 211, 466, 2, 257, 0
22, 212, 468, 2, 257, 0
22, 212, 469, 2, 257, 0
22, 212, 470, 2, 257, 0
22, 212, 471, 2, 257, 0
22, 212, 472, 2, 257, 0
22, 213, 473, 2, 257, 0
22, 643, 451, 3, 441, 0
22, 644, 452, 3, 441, 0
22, 644, 453, 3, 441, 0
22, 645, 454, 3, 441, 0
22, 645, 455, 3, 441, 0
22, 645, 456, 3, 441, 0
22, 646, 457, 3, 441, 0
22, 646, 459, 3, 441, 0
22, 647, 460, 3, 441, 0
22, 647, 461, 3, 441, 0
22, 648, 462, 3, 441, 0
22, 35, 451, 3, 442, 0
22, 35, 452, 3, 442, 0
22, 35, 453, 3, 442, 0
22, 36, 454, 3, 442, 0
22, 36, 455, 3, 442, 0
22, 36, 456, 3, 442, 0
22, 36, 457, 3, 442, 0
22, 37, 459, 3, 442, 0
22, 37, 460, 3, 442, 0
22, 37, 461, 3, 442, 0
22, 37, 462, 3, 442, 0
22, 559, 438, 4, 650, 0
22, 560, 439, 4, 650, 0
22, 560, 441, 4, 650, 0
22, 561, 442, 4, 650, 0
22, 561, 443, 4, 650, 0
22, 562, 444, 4, 650, 0
22, 562, 445, 4, 650, 0
22, 563, 446, 4, 650, 0
22, 563, 447, 4, 650, 0
22, 564, 448, 4, 650, 0
22, 564, 450, 4, 650, 0
22, 565, 451, 4, 650, 0
Part (mu^+) Info - X [m], Y [m], Z [m], Px [GeV], Py [GeV], Pz [GeV], Error
0.0 ,  0.0 ,  0.0 ,  0.0 ,  0.4 ,  0.2 ,  0
Part#, Row, Col, layer#, Segment#, Error
23, 191, 790, 0, 64, 0
23, 191, 791, 0, 64, 0
23, 191, 792, 0, 64, 0
23, 191, 793, 0, 64, 0
23, 447, 46, 1, 108, 0
23, 447, 47, 1, 108, 0
23, 447, 48, 1, 108, 0
23, 448, 50, 1, 108, 0
23, 91, 749, 2, 225, 0
23, 91, 750, 2, 225, 0
23, 91, 751, 2, 225, 0
23, 91, 753, 2, 225, 0
23, 91, 754, 2, 225, 0
23, 91, 755, 2, 225, 0
23, 91, 756, 2, 225, 0
23, 92, 757, 2, 225, 0
23, 92, 758, 2, 225, 0
23, 411, 527, 3, 397, 0
23, 412, 528, 3, 397, 0
23, 412, 529, 3, 397, 0
23, 413, 530, 3, 397, 0
23, 413, 531, 3, 397, 0
23, 413, 532, 3, 397, 0
23, 414, 533, 3, 397, 0
23, 414, 535, 3, 397, 0
23, 183, 312, 4, 596, 0
23, 184, 313, 4, 596, 0
23, 184, 314, 4, 596, 0
23, 184, 316, 4, 596, 0
23, 185, 317, 4, 596, 0
23, 185, 318, 4, 596, 0
23, 186, 319, 4, 596, 0
23, 186, 320, 4, 596, 0
23, 186, 321, 4, 596, 0
Part (mu^+) Info - X [m], Y [m], Z [m], Px [GeV], Py [GeV], Pz [GeV], Error
0.0 ,  0.0 ,  0.0 ,  0.0 ,  0.5 ,  0.2 ,  0
Part#, Row, Col, layer#, Segment#, Error
24, 186, 713, 0, 64, 0
24, 186, 714, 0, 64, 0
24, 186, 715, 0, 64, 0
24, 425, 679, 1, 90, 0
24, 425, 680, 1, 90, 0
24, 425, 681, 1, 90, 0
24, 426, 682, 1, 90, 0
24, 628, 440, 2, 224, 0
24, 629, 441, 2, 224, 0
24, 629, 443, 2, 224, 0
24, 630, 444, 2, 224, 0
24, 630, 445, 2, 224, 0
24, 19, 439, 2, 225, 0
24, 19, 440, 2, 225, 0
24, 19, 441, 2, 225, 0
24, 19, 443, 2, 225, 0
24, 19, 444, 2, 225, 0
24, 19, 445, 2, 225, 0
24, 19, 446, 2, 225, 0
24, 275, 96, 3, 397, 0
24, 275, 97, 3, 397, 0
24, 275, 98, 3, 397, 0
24, 276, 100, 3, 397, 0
24, 276, 101, 3, 397, 0
24, 276, 102, 3, 397, 0
24, 277, 103, 3, 397, 0
24, 277, 104, 3, 397, 0
24, 591, 568, 4, 541, 0
24, 592, 569, 4, 541, 0
24, 593, 570, 4, 541, 0
24, 593, 571, 4, 541, 0
24, 594, 572, 4, 541, 0
24, 594, 573, 4, 541, 0
24, 595, 574, 4, 541, 0
Part (mu^+) Info - X [m], Y [m], Z [m], Px [GeV], Py [GeV], Pz [GeV], Error
0.0 ,  0.0 ,  0.0 ,  0.0 ,  0.6 ,  0.2 ,  0
Part#, Row, Col, layer#, Segment#, Error
25, 183, 660, 0, 64, 0
25, 183, 662, 0, 64, 0
25, 183, 663, 0, 64, 0
25, 411, 566, 1, 90, 0
25, 411, 567, 1, 90, 0
25, 411, 569, 1, 90, 0
25, 580, 231, 2, 224, 0
25, 580, 232, 2, 224, 0
25, 581, 234, 2, 224, 0
25, 581, 235, 2, 224, 0
25, 185, 616, 3, 353, 0
25, 185, 617, 3, 353, 0
25, 185, 619, 3, 353, 0
25, 185, 620, 3, 353, 0
25, 185, 621, 3, 353, 0
25, 186, 622, 3, 353, 0
25, 443, 201, 4, 541, 0
25, 444, 202, 4, 541, 0
25, 444, 203, 4, 541, 0
25, 445, 204, 4, 541, 0
25, 445, 205, 4, 541, 0
25, 446, 206, 4, 541, 0
Part (mu^+) Info - X [m], Y [m], Z [m], Px [GeV], Py [GeV], Pz [GeV], Error
0.0 ,  0.0 ,  0.0 ,  0.0 ,  0.7 ,  0.2 ,  0
Part#, Row, Col, layer#, Segment#, Error
26, 181, 624, 0, 64, 0
26, 181, 625, 0, 64, 0
26, 400, 484, 1, 90, 0
26, 400, 486, 1, 90, 0
26, 401, 487, 1, 90, 0
26, 545, 83, 2, 224, 0
26, 546, 84, 2, 224, 0
26, 546, 85, 2, 224, 0
26, 547, 86, 2, 224, 0
26, 120, 413, 3, 353, 0
26, 120, 414, 3, 353, 0
26, 120, 415, 3, 353, 0
26, 120, 416, 3, 353, 0
26, 121, 418, 3, 353, 0
26, 121, 419, 3, 353, 0
26, 338, 745, 4, 487, 0
26, 338, 746, 4, 487, 0
26, 339, 747, 4, 487, 0
26, 339, 748, 4, 487, 0
26, 340, 749, 4, 487, 0
26, 340, 750, 4, 487, 0
Part (mu^+) Info - X [m], Y [m], Z [m], Px [GeV], Py [GeV], Pz [GeV], Error
0.0 ,  0.0 ,  0.0 ,  0.0 ,  0.8 ,  0.2 ,  0
Part#, Row, Col, layer#, Segment#, Error
27, 179, 596, 0, 64, 0
27, 179, 597, 0, 64, 0
27, 392, 424, 1, 90, 0
27, 393, 425, 1, 90, 0
27, 519, 775, 2, 192, 0
27, 520, 776, 2, 192, 0
27, 520, 777, 2, 192, 0
27, 72, 261, 3, 353, 0
27, 72, 262, 3, 353, 0
27, 72, 263, 3, 353, 0
27, 72, 264, 3, 353, 0
27, 72, 265, 3, 353, 0
27, 72, 266, 3, 353, 0
27, 259, 550, 4, 487, 0
27, 260, 552, 4, 487, 0
27, 260, 553, 4, 487, 0
27, 261, 554, 4, 487, 0
27, 261, 555, 4, 487, 0
Part (mu^+) Info - X [m], Y [m], Z [m], Px [GeV], Py [GeV], Pz [GeV], Error
0.0 ,  0.0 ,  0.0 ,  0.0 ,  0.9 ,  0.2 ,  0
Part#, Row, Col, layer#, Segment#, Error
28, 178, 574, 0, 64, 0
28, 178, 575, 0, 64, 0
28, 386, 377, 1, 90, 0
28, 387, 378, 1, 90, 0
28, 499, 689, 2, 192, 0
28, 500, 690, 2, 192, 0
28, 500, 691, 2, 192, 0
28, 642, 144, 3, 352, 0
28, 643, 145, 3, 352, 0
28, 644, 146, 3, 352, 0
28, 34, 143, 3, 353, 0
28, 34, 144, 3, 353, 0
28, 34, 145, 3, 353, 0
28, 34, 146, 3, 353, 0
28, 34, 147, 3, 353, 0
28, 198, 399, 4, 487, 0
28, 199, 401, 4, 487, 0
28, 199, 402, 4, 487, 0
28, 199, 403, 4, 487, 0
28, 200, 404, 4, 487, 0
Part (mu^+) Info - X [m], Y [m], Z [m], Px [GeV], Py [GeV], Pz [GeV], Error
0.0 ,  0.0 ,  0.0 ,  0.0 ,  1.0 ,  0.2 ,  0
Part#, Row, Col, layer#, Segment#, Error
29, 177, 557, 0, 64, 0
29, 177, 558, 0, 64, 0
29, 382, 339, 1, 90, 0
29, 382, 340, 1, 90, 0
29, 483, 620, 2, 192, 0
29, 484, 621, 2, 192, 0
29, 484, 622, 2, 192, 0
29, 612, 48, 3, 352, 0
29, 613, 50, 3, 352, 0
29, 613, 51, 3, 352, 0
29, 4, 47, 3, 353, 0
29, 4, 48, 3, 353, 0
29, 4, 50, 3, 353, 0
29, 4, 51, 3, 353, 0
29, 3, 52, 3, 353, 0
29, 150, 279, 4, 487, 0
29, 150, 280, 4, 487, 0
29, 150, 281, 4, 487, 0
29, 150, 282, 4, 487, 0
29, 151, 284, 4, 487, 0
Part (mu^+) Info - X [m], Y [m], Z [m], Px [GeV], Py [GeV], Pz [GeV], Error
0.0 ,  0.0 ,  0.0 ,  0.0 ,  0.1 ,  0.3 ,  0
Part#, Row, Col, layer#, Segment#, Error
30, 259, 337, 0, 112, 0
30, 259, 339, 0, 112, 0
30, 259, 340, 0, 112, 0
30, 260, 342, 0, 112, 0
30, 260, 344, 0, 112, 0
30, 260, 346, 0, 112, 0
30, 260, 347, 0, 112, 0
30, 260, 349, 0, 112, 0
30, 260, 351, 0, 112, 0
30, 260, 352, 0, 112, 0
30, 260, 354, 0, 112, 0
30, 261, 356, 0, 112, 0
30, 261, 357, 0, 112, 0
30, 261, 359, 0, 112, 0
30, 261, 361, 0, 112, 0
30, 261, 363, 0, 112, 0
30, 261, 364, 0, 112, 0
30, 261, 366, 0, 112, 0
Part (mu^+) Info - X [m], Y [m], Z [m], Px [GeV], Py [GeV], Pz [GeV], Error
0.0 ,  0.0 ,  0.0 ,  0.0 ,  0.2 ,  0.3 ,  0
Part#, Row, Col, layer#, Segment#, Error
31, 213, 763, 0, 80, 0
31, 213, 764, 0, 80, 0
31, 213, 766, 0, 80, 0
31, 213, 768, 0, 80, 0
31, 214, 770, 0, 80, 0
31, 214, 771, 0, 80, 0
31, 214, 773, 0, 80, 0
31, 214, 775, 0, 80, 0
31, 214, 776, 0, 80, 0
31, 557, 158, 1, 144, 0
31, 557, 160, 1, 144, 0
31, 558, 162, 1, 144, 0
31, 558, 163, 1, 144, 0
31, 558, 165, 1, 144, 0
31, 558, 167, 1, 144, 0
31, 559, 168, 1, 144, 0
31, 559, 170, 1, 144, 0
31, 559, 172, 1, 144, 0
31, 454, 663, 2, 353, 0
31, 454, 664, 2, 353, 0
31, 454, 666, 2, 353, 0
31, 455, 668, 2, 353, 0
31, 455, 669, 2, 353, 0
31, 455, 671, 2, 353, 0
31, 455, 673, 2, 353, 0
31, 456, 675, 2, 353, 0
31, 456, 676, 2, 353, 0
31, 456, 678, 2, 353, 0
31, 457, 680, 2, 353, 0
31, 457, 681, 2, 353, 0
31, 457, 683, 2, 353, 0
31, 458, 685, 2, 353, 0
31, 458, 686, 2, 353, 0
Part (mu^+) Info - X [m], Y [m], Z [m], Px [GeV], Py [GeV], Pz [GeV], Error
0.0 ,  0.0 ,  0.0 ,  0.0 ,  0.3 ,  0.3 ,  0
Part#, Row, Col, layer#, Segment#, Error
32, 198, 374, 0, 80, 0
32, 198, 376, 0, 80, 0
32, 198, 378, 0, 80, 0
32, 198, 379, 0, 80, 0
32, 199, 381, 0, 80, 0
32, 199, 383, 0, 80, 0
32, 483, 95, 1, 126, 0
32, 483, 97, 1, 126, 0
32, 483, 98, 1, 126, 0
32, 484, 100, 1, 126, 0
32, 484, 102, 1, 126, 0
32, 484, 104, 1, 126, 0
32, 211, 693, 2, 289, 0
32, 211, 695, 2, 289, 0
32, 211, 697, 2, 289, 0
32, 211, 698, 2, 289, 0
32, 211, 700, 2, 289, 0
32, 212, 702, 2, 289, 0
32, 212, 703, 2, 289, 0
32, 212, 705, 2, 289, 0
32, 212, 707, 2, 289, 0
32, 212, 708, 2, 289, 0
32, 213, 710, 2, 289, 0
32, 643, 274, 3, 529, 0
32, 644, 276, 3, 529, 0
32, 644, 278, 3, 529, 0
32, 645, 279, 3, 529, 0
32, 645, 281, 3, 529, 0
32, 645, 283, 3, 529, 0
32, 646, 284, 3, 529, 0
32, 646, 286, 3, 529, 0
32, 647, 288, 3, 529, 0
32, 647, 290, 3, 529, 0
32, 648, 291, 3, 529, 0
32, 35, 274, 3, 530, 0
32, 35, 276, 3, 530, 0
32, 35, 278, 3, 530, 0
32, 36, 279, 3, 530, 0
32, 36, 281, 3, 530, 0
32, 36, 283, 3, 530, 0
32, 36, 284, 3, 530, 0
32, 37, 286, 3, 530, 0
32, 37, 288, 3, 530, 0
32, 37, 290, 3, 530, 0
32, 37, 291, 3, 530, 0
32, 559, 658, 4, 758, 0
32, 560, 659, 4, 758, 0
32, 560, 661, 4, 758, 0
32, 561, 663, 4, 758, 0
32, 561, 664, 4, 758, 0
32, 562, 666, 4, 758, 0
32, 562, 668, 4, 758, 0
32, 563, 670, 4, 758, 0
32, 563, 671, 4, 758, 0
32, 564, 673, 4, 758, 0
32, 564, 675, 4, 758, 0
32, 565, 676, 4, 758, 0
Part (mu^+) Info - X [m], Y [m], Z [m], Px [GeV], Py [GeV], Pz [GeV], Error
0.0 ,  0.0 ,  0.0 ,  0.0 ,  0.4 ,  0.3 ,  0
Part#, Row, Col, layer#, Segment#, Error
33, 191, 180, 0, 80, 0
33, 191, 182, 0, 80, 0
33, 191, 184, 0, 80, 0
33, 191, 185, 0, 80, 0
33, 447, 471, 1, 108, 0
33, 447, 473, 1, 108, 0
33, 447, 475, 1, 108, 0
33, 448, 477, 1, 108, 0
33, 91, 722, 2, 257, 0
33, 91, 724, 2, 257, 0
33, 91, 725, 2, 257, 0
33, 91, 727, 2, 257, 0
33, 91, 729, 2, 257, 0
33, 91, 731, 2, 257, 0
33, 91, 732, 2, 257, 0
33, 92, 734, 2, 257, 0
33, 92, 736, 2, 257, 0
33, 411, 790, 3, 441, 0
33, 412, 792, 3, 441, 0
33, 412, 794, 3, 441, 0
33, 413, 795, 3, 441, 0
33, 413, 797, 3, 441, 0
33, 413, 799, 3, 441, 0
33, 414, 800, 3, 441, 0
33, 414, 802, 3, 441, 0
33, 183, 66, 4, 704, 0
33, 184, 68, 4, 704, 0
33, 184, 70, 4, 704, 0
33, 184, 72, 4, 704, 0
33, 185, 73, 4, 704, 0
33, 185, 75, 4, 704, 0
33, 186, 77, 4, 704, 0
33, 186, 78, 4, 704, 0
33, 186, 80, 4, 704, 0
Part (mu^+) Info - X [m], Y [m], Z [m], Px [GeV], Py [GeV], Pz [GeV], Error
0.0 ,  0.0 ,  0.0 ,  0.0 ,  0.5 ,  0.3 ,  0
Part#, Row, Col, layer#, Segment#, Error
34, 186, 64, 0, 80, 0
34, 186, 66, 0, 80, 0
34, 186, 68, 0, 80, 0
34, 425, 214, 1, 108, 0
34, 425, 216, 1, 108, 0
34, 425, 218, 1, 108, 0
34, 426, 219, 1, 108, 0
34, 628, 259, 2, 256, 0
34, 629, 260, 2, 256, 0
34, 629, 262, 2, 256, 0
34, 630, 264, 2, 256, 0
34, 630, 265, 2, 256, 0
34, 19, 257, 2, 257, 0
34, 19, 259, 2, 257, 0
34, 19, 260, 2, 257, 0
34, 19, 262, 2, 257, 0
34, 19, 264, 2, 257, 0
34, 19, 265, 2, 257, 0
34, 19, 267, 2, 257, 0
34, 275, 145, 3, 441, 0
34, 275, 146, 3, 441, 0
34, 275, 148, 3, 441, 0
34, 276, 150, 3, 441, 0
34, 276, 151, 3, 441, 0
34, 276, 153, 3, 441, 0
34, 277, 155, 3, 441, 0
34, 277, 157, 3, 441, 0
34, 591, 48, 4, 649, 0
34, 592, 49, 4, 649, 0
34, 593, 51, 4, 649, 0
34, 593, 53, 4, 649, 0
34, 594, 54, 4, 649, 0
34, 594, 56, 4, 649, 0
34, 595, 58, 4, 649, 0
Part (mu^+) Info - X [m], Y [m], Z [m], Px [GeV], Py [GeV], Pz [GeV], Error
0.0 ,  0.0 ,  0.0 ,  0.0 ,  0.6 ,  0.3 ,  0
Part#, Row, Col, layer#, Segment#, Error
35, 183, 790, 0, 64, 0
35, 183, 792, 0, 64, 0
35, 183, 793, 0, 64, 0
35, 411, 46, 1, 108, 0
35, 411, 47, 1, 108, 0
35, 411, 49, 1, 108, 0
35, 580, 749, 2, 224, 0
35, 580, 751, 2, 224, 0
35, 581, 753, 2, 224, 0
35, 581, 754, 2, 224, 0
35, 185, 523, 3, 397, 0
35, 185, 524, 3, 397, 0
35, 185, 526, 3, 397, 0
35, 185, 528, 3, 397, 0
35, 185, 529, 3, 397, 0
35, 186, 531, 3, 397, 0
35, 443, 301, 4, 595, 0
35, 444, 303, 4, 595, 0
35, 444, 305, 4, 595, 0
35, 445, 306, 4, 595, 0
35, 445, 308, 4, 595, 0
35, 446, 310, 4, 595, 0
Part (mu^+) Info - X [m], Y [m], Z [m], Px [GeV], Py [GeV], Pz [GeV], Error
0.0 ,  0.0 ,  0.0 ,  0.0 ,  0.7 ,  0.3 ,  0
Part#, Row, Col, layer#, Segment#, Error
36, 181, 735, 0, 64, 0
36, 181, 737, 0, 64, 0
36, 400, 727, 1, 90, 0
36, 400, 729, 1, 90, 0
36, 401, 730, 1, 90, 0
36, 545, 526, 2, 224, 0
36, 546, 528, 2, 224, 0
36, 546, 529, 2, 224, 0
36, 547, 531, 2, 224, 0
36, 120, 218, 3, 397, 0
36, 120, 219, 3, 397, 0
36, 120, 221, 3, 397, 0
36, 120, 223, 3, 397, 0
36, 121, 225, 3, 397, 0
36, 121, 226, 3, 397, 0
36, 338, 715, 4, 541, 0
36, 338, 717, 4, 541, 0
36, 339, 719, 4, 541, 0
36, 339, 720, 4, 541, 0
36, 340, 722, 4, 541, 0
36, 340, 724, 4, 541, 0
Part (mu^+) Info - X [m], Y [m], Z [m], Px [GeV], Py [GeV], Pz [GeV], Error
0.0 ,  0.0 ,  0.0 ,  0.0 ,  0.8 ,  0.3 ,  0
Part#, Row, Col, layer#, Segment#, Error
37, 179, 693, 0, 64, 0
37, 179, 695, 0, 64, 0
37, 392, 637, 1, 90, 0
37, 393, 638, 1, 90, 0
37, 519, 359, 2, 224, 0
37, 520, 361, 2, 224, 0
37, 520, 362, 2, 224, 0
37, 72, 793, 3, 353, 0
37, 72, 795, 3, 353, 0
37, 72, 797, 3, 353, 0
37, 72, 799, 3, 353, 0
37, 72, 800, 3, 353, 0
37, 72, 802, 3, 353, 0
37, 259, 424, 4, 541, 0
37, 260, 426, 4, 541, 0
37, 260, 427, 4, 541, 0
37, 261, 429, 4, 541, 0
37, 261, 431, 4, 541, 0
Part (mu^+) Info - X [m], Y [m], Z [m], Px [GeV], Py [GeV], Pz [GeV], Error
0.0 ,  0.0 ,  0.0 ,  0.0 ,  0.9 ,  0.3 ,  0
Part#, Row, Col, layer#, Segment#, Error
38, 178, 660, 0, 64, 0
38, 178, 662, 0, 64, 0
38, 386, 565, 1, 90, 0
38, 387, 567, 1, 90, 0
38, 499, 230, 2, 224, 0
38, 500, 231, 2, 224, 0
38, 500, 233, 2, 224, 0
38, 642, 618, 3, 352, 0
38, 643, 620, 3, 352, 0
38, 644, 621, 3, 352, 0
38, 34, 616, 3, 353, 0
38, 34, 618, 3, 353, 0
38, 34, 620, 3, 353, 0
38, 34, 621, 3, 353, 0
38, 34, 623, 3, 353, 0
38, 198, 197, 4, 541, 0
38, 199, 199, 4, 541, 0
38, 199, 201, 4, 541, 0
38, 199, 202, 4, 541, 0
38, 200, 204, 4, 541, 0
Part (mu^+) Info - X [m], Y [m], Z [m], Px [GeV], Py [GeV], Pz [GeV], Error
0.0 ,  0.0 ,  0.0 ,  0.0 ,  1.0 ,  0.3 ,  0
Part#, Row, Col, layer#, Segment#, Error
39, 177, 635, 0, 64, 0
39, 177, 637, 0, 64, 0
39, 382, 509, 1, 90, 0
39, 382, 511, 1, 90, 0
39, 483, 126, 2, 224, 0
39, 484, 127, 2, 224, 0
39, 484, 129, 2, 224, 0
39, 612, 475, 3, 352, 0
39, 613, 477, 3, 352, 0
39, 613, 478, 3, 352, 0
39, 4, 473, 3, 353, 0
39, 4, 475, 3, 353, 0
39, 4, 477, 3, 353, 0
39, 4, 478, 3, 353, 0
39, 3, 480, 3, 353, 0
39, 150, 17, 4, 541, 0
39, 150, 18, 4, 541, 0
39, 150, 20, 4, 541, 0
39, 150, 22, 4, 541, 0
39, 151, 24, 4, 541, 0
Part (mu^+) Info - X [m], Y [m], Z [m], Px [GeV], Py [GeV], Pz [GeV], Error
0.0 ,  0.0 ,  0.0 ,  0.0 ,  0.1 ,  0.4 ,  0
Part#, Row, Col, layer#, Segment#, Error
40, 259, 316, 0, 128, 0
40, 259, 318, 0, 128, 0
40, 259, 320, 0, 128, 0
40, 260, 322, 0, 128, 0
40, 260, 325, 0, 128, 0
40, 260, 327, 0, 128, 0
40, 260, 329, 0, 128, 0
40, 260, 331, 0, 128, 0
40, 260, 334, 0, 128, 0
40, 260, 336, 0, 128, 0
40, 260, 338, 0, 128, 0
40, 261, 341, 0, 128, 0
40, 261, 343, 0, 128, 0
40, 261, 345, 0, 128, 0
40, 261, 347, 0, 128, 0
40, 261, 350, 0, 128, 0
40, 261, 352, 0, 128, 0
40, 261, 354, 0, 128, 0
Part (mu^+) Info - X [m], Y [m], Z [m], Px [GeV], Py [GeV], Pz [GeV], Error
0.0 ,  0.0 ,  0.0 ,  0.0 ,  0.2 ,  0.4 ,  0
Part#, Row, Col, layer#, Segment#, Error
41, 213, 347, 0, 96, 0
41, 213, 349, 0, 96, 0
41, 213, 352, 0, 96, 0
41, 213, 354, 0, 96, 0
41, 214, 356, 0, 96, 0
41, 214, 359, 0, 96, 0
41, 214, 361, 0, 96, 0
41, 214, 363, 0, 96, 0
41, 214, 365, 0, 96, 0
41, 557, 211, 1, 162, 0
41, 557, 213, 1, 162, 0
41, 558, 216, 1, 162, 0
41, 558, 218, 1, 162, 0
41, 558, 220, 1, 162, 0
41, 558, 222, 1, 162, 0
41, 559, 225, 1, 162, 0
41, 559, 227, 1, 162, 0
41, 559, 229, 1, 162, 0
Part (mu^+) Info - X [m], Y [m], Z [m], Px [GeV], Py [GeV], Pz [GeV], Error
0.0 ,  0.0 ,  0.0 ,  0.0 ,  0.3 ,  0.4 ,  0
Part#, Row, Col, layer#, Segment#, Error
42, 198, 633, 0, 80, 0
42, 198, 636, 0, 80, 0
42, 198, 638, 0, 80, 0
42, 198, 640, 0, 80, 0
42, 199, 642, 0, 80, 0
42, 199, 645, 0, 80, 0
42, 483, 663, 1, 126, 0
42, 483, 665, 1, 126, 0
42, 483, 667, 1, 126, 0
42, 484, 670, 1, 126, 0
42, 484, 672, 1, 126, 0
42, 484, 674, 1, 126, 0
42, 211, 120, 2, 353, 0
42, 211, 123, 2, 353, 0
42, 211, 125, 2, 353, 0
42, 211, 127, 2, 353, 0
42, 211, 129, 2, 353, 0
42, 212, 132, 2, 353, 0
42, 212, 134, 2, 353, 0
42, 212, 136, 2, 353, 0
42, 212, 139, 2, 353, 0
42, 212, 141, 2, 353, 0
42, 213, 143, 2, 353, 0
Part (mu^+) Info - X [m], Y [m], Z [m], Px [GeV], Py [GeV], Pz [GeV], Error
0.0 ,  0.0 ,  0.0 ,  0.0 ,  0.4 ,  0.4 ,  0
Part#, Row, Col, layer#, Segment#, Error
43, 191, 374, 0, 80, 0
43, 191, 377, 0, 80, 0
43, 191, 379, 0, 80, 0
43, 191, 381, 0, 80, 0
43, 447, 93, 1, 126, 0
43, 447, 95, 1, 126, 0
43, 447, 97, 1, 126, 0
43, 448, 100, 1, 126, 0
43, 91, 695, 2, 289, 0
43, 91, 697, 2, 289, 0
43, 91, 699, 2, 289, 0
43, 91, 702, 2, 289, 0
43, 91, 704, 2, 289, 0
43, 91, 706, 2, 289, 0
43, 91, 708, 2, 289, 0
43, 92, 711, 2, 289, 0
43, 92, 713, 2, 289, 0
43, 411, 250, 3, 529, 0
43, 412, 252, 3, 529, 0
43, 412, 254, 3, 529, 0
43, 413, 257, 3, 529, 0
43, 413, 259, 3, 529, 0
43, 413, 261, 3, 529, 0
43, 414, 263, 3, 529, 0
43, 414, 266, 3, 529, 0
43, 183, 625, 4, 758, 0
43, 184, 627, 4, 758, 0
43, 184, 629, 4, 758, 0
43, 184, 632, 4, 758, 0
43, 185, 634, 4, 758, 0
43, 185, 636, 4, 758, 0
43, 186, 638, 4, 758, 0
43, 186, 641, 4, 758, 0
43, 186, 643, 4, 758, 0
Part (mu^+) Info - X [m], Y [m], Z [m], Px [GeV], Py [GeV], Pz [GeV], Error
0.0 ,  0.0 ,  0.0 ,  0.0 ,  0.5 ,  0.4 ,  0
Part#, Row, Col, layer#, Segment#, Error
44, 186, 220, 0, 80, 0
44, 186, 222, 0, 80, 0
44, 186, 224, 0, 80, 0
44, 425, 554, 1, 108, 0
44, 425, 556, 1, 108, 0
44, 425, 558, 1, 108, 0
44, 426, 561, 1, 108, 0
44, 628, 77, 2, 288, 0
44, 629, 79, 2, 288, 0
44, 629, 82, 2, 288, 0
44, 630, 84, 2, 288, 0
44, 630, 86, 2, 288, 0
44, 19, 75, 2, 289, 0
44, 19, 77, 2, 289, 0
44, 19, 79, 2, 289, 0
44, 19, 82, 2, 289, 0
44, 19, 84, 2, 289, 0
44, 19, 86, 2, 289, 0
44, 19, 88, 2, 289, 0
44, 275, 193, 3, 485, 0
44, 275, 195, 3, 485, 0
44, 275, 197, 3, 485, 0
44, 276, 200, 3, 485, 0
44, 276, 202, 3, 485, 0
44, 276, 204, 3, 485, 0
44, 277, 207, 3, 485, 0
44, 277, 209, 3, 485, 0
44, 591, 332, 4, 703, 0
44, 592, 334, 4, 703, 0
44, 593, 336, 4, 703, 0
44, 593, 338, 4, 703, 0
44, 594, 341, 4, 703, 0
44, 594, 343, 4, 703, 0
44, 595, 345, 4, 703, 0
Part (mu^+) Info - X [m], Y [m], Z [m], Px [GeV], Py [GeV], Pz [GeV], Error
0.0 ,  0.0 ,  0.0 ,  0.0 ,  0.6 ,  0.4 ,  0
Part#, Row, Col, layer#, Segment#, Error
45, 183, 115, 0, 80, 0
45, 183, 118, 0, 80, 0
45, 183, 120, 0, 80, 0
45, 411, 329, 1, 108, 0
45, 411, 331, 1, 108, 0
45, 411, 333, 1, 108, 0
45, 580, 463, 2, 256, 0
45, 580, 465, 2, 256, 0
45, 581, 468, 2, 256, 0
45, 581, 470, 2, 256, 0
45, 185, 429, 3, 441, 0
45, 185, 431, 3, 441, 0
45, 185, 434, 3, 441, 0
45, 185, 436, 3, 441, 0
45, 185, 438, 3, 441, 0
45, 186, 440, 3, 441, 0
45, 443, 402, 4, 649, 0
45, 444, 404, 4, 649, 0
45, 444, 406, 4, 649, 0
45, 445, 409, 4, 649, 0
45, 445, 411, 4, 649, 0
45, 446, 413, 4, 649, 0
Part (mu^+) Info - X [m], Y [m], Z [m], Px [GeV], Py [GeV], Pz [GeV], Error
0.0 ,  0.0 ,  0.0 ,  0.0 ,  0.7 ,  0.4 ,  0
Part#, Row, Col, layer#, Segment#, Error
46, 181, 43, 0, 80, 0
46, 181, 45, 0, 80, 0
46, 400, 165, 1, 108, 0
46, 400, 168, 1, 108, 0
46, 401, 170, 1, 108, 0
46, 545, 166, 2, 256, 0
46, 546, 168, 2, 256, 0
46, 546, 170, 2, 256, 0
46, 547, 172, 2, 256, 0
46, 120, 22, 3, 441, 0
46, 120, 25, 3, 441, 0
46, 120, 27, 3, 441, 0
46, 120, 29, 3, 441, 0
46, 121, 32, 3, 441, 0
46, 121, 34, 3, 441, 0
46, 338, 686, 4, 595, 0
46, 338, 688, 4, 595, 0
46, 339, 690, 4, 595, 0
46, 339, 693, 4, 595, 0
46, 340, 695, 4, 595, 0
46, 340, 697, 4, 595, 0
Part (mu^+) Info - X [m], Y [m], Z [m], Px [GeV], Py [GeV], Pz [GeV], Error
0.0 ,  0.0 ,  0.0 ,  0.0 ,  0.8 ,  0.4 ,  0
Part#, Row, Col, layer#, Segment#, Error
47, 179, 790, 0, 64, 0
47, 179, 792, 0, 64, 0
47, 392, 45, 1, 108, 0
47, 393, 47, 1, 108, 0
47, 519, 747, 2, 224, 0
47, 520, 749, 2, 224, 0
47, 520, 751, 2, 224, 0
47, 72, 522, 3, 397, 0
47, 72, 524, 3, 397, 0
47, 72, 527, 3, 397, 0
47, 72, 529, 3, 397, 0
47, 72, 531, 3, 397, 0
47, 72, 533, 3, 397, 0
47, 259, 297, 4, 595, 0
47, 260, 300, 4, 595, 0
47, 260, 302, 4, 595, 0
47, 261, 304, 4, 595, 0
47, 261, 306, 4, 595, 0
Part (mu^+) Info - X [m], Y [m], Z [m], Px [GeV], Py [GeV], Pz [GeV], Error
0.0 ,  0.0 ,  0.0 ,  0.0 ,  0.9 ,  0.4 ,  0
Part#, Row, Col, layer#, Segment#, Error
48, 178, 747, 0, 64, 0
48, 178, 749, 0, 64, 0
48, 386, 754, 1, 90, 0
48, 387, 756, 1, 90, 0
48, 499, 574, 2, 224, 0
48, 500, 577, 2, 224, 0
48, 500, 579, 2, 224, 0
48, 642, 288, 3, 396, 0
48, 643, 290, 3, 396, 0
48, 644, 293, 3, 396, 0
48, 34, 286, 3, 397, 0
48, 34, 288, 3, 397, 0
48, 34, 290, 3, 397, 0
48, 34, 293, 3, 397, 0
48, 34, 295, 3, 397, 0
48, 198, 799, 4, 541, 1
48, 199, 802, 4, 541, 1
Part (mu^+) Info - X [m], Y [m], Z [m], Px [GeV], Py [GeV], Pz [GeV], Error
0.0 ,  0.0 ,  0.0 ,  0.0 ,  1.0 ,  0.4 ,  0
Part#, Row, Col, layer#, Segment#, Error
49, 177, 713, 0, 64, 0
49, 177, 715, 0, 64, 0
49, 382, 679, 1, 90, 0
49, 382, 681, 1, 90, 0
49, 483, 436, 2, 224, 0
49, 484, 438, 2, 224, 0
49, 484, 440, 2, 224, 0
49, 612, 97, 3, 396, 0
49, 613, 100, 3, 396, 0
49, 613, 102, 3, 396, 0
49, 4, 95, 3, 397, 0
49, 4, 97, 3, 397, 0
49, 4, 100, 3, 397, 0
49, 4, 102, 3, 397, 0
49, 3, 104, 3, 397, 0
49, 150, 558, 4, 541, 0
49, 150, 561, 4, 541, 0
49, 150, 563, 4, 541, 0
49, 150, 565, 4, 541, 0
49, 151, 568, 4, 541, 0
Part (mu^+) Info - X [m], Y [m], Z [m], Px [GeV], Py [GeV], Pz [GeV], Error
0.0 ,  0.0 ,  0.0 ,  0.0 ,  0.1 ,  0.5 ,  -2
Part#, Row, Col, layer#, Segment#, Error
Part (mu^+) Info - X [m], Y [m], Z [m], Px [GeV], Py [GeV], Pz [GeV], Error
0.0 ,  0.0 ,  0.0 ,  0.0 ,  0.2 ,  0.5 ,  0
Part#, Row, Col, layer#, Segment#, Error
51, 213, 736, 0, 96, 0
51, 213, 738, 0, 96, 0
51, 213, 741, 0, 96, 0
51, 213, 744, 0, 96, 0
51, 214, 747, 0, 96, 0
51, 214, 750, 0, 96, 0
51, 214, 753, 0, 96, 0
51, 214, 755, 0, 96, 0
51, 214, 758, 0, 96, 0
Part (mu^+) Info - X [m], Y [m], Z [m], Px [GeV], Py [GeV], Pz [GeV], Error
0.0 ,  0.0 ,  0.0 ,  0.0 ,  0.3 ,  0.5 ,  0
Part#, Row, Col, layer#, Segment#, Error
52, 198, 88, 0, 96, 0
52, 198, 91, 0, 96, 0
52, 198, 94, 0, 96, 0
52, 198, 97, 0, 96, 0
52, 199, 100, 0, 96, 0
52, 199, 102, 0, 96, 0
52, 483, 427, 1, 144, 0
52, 483, 430, 1, 144, 0
52, 483, 432, 1, 144, 0
52, 484, 435, 1, 144, 0
52, 484, 438, 1, 144, 0
52, 484, 441, 1, 144, 0
Part (mu^+) Info - X [m], Y [m], Z [m], Px [GeV], Py [GeV], Pz [GeV], Error
0.0 ,  0.0 ,  0.0 ,  0.0 ,  0.4 ,  0.5 ,  0
Part#, Row, Col, layer#, Segment#, Error
53, 191, 569, 0, 80, 0
53, 191, 571, 0, 80, 0
53, 191, 574, 0, 80, 0
53, 191, 577, 0, 80, 0
53, 447, 518, 1, 126, 0
53, 447, 521, 1, 126, 0
53, 447, 524, 1, 126, 0
53, 448, 527, 1, 126, 0
53, 91, 668, 2, 321, 0
53, 91, 671, 2, 321, 0
53, 91, 673, 2, 321, 0
53, 91, 676, 2, 321, 0
53, 91, 679, 2, 321, 0
53, 91, 682, 2, 321, 0
53, 91, 685, 2, 321, 0
53, 92, 688, 2, 321, 0
53, 92, 690, 2, 321, 0
53, 411, 513, 3, 573, 0
53, 412, 516, 3, 573, 0
53, 412, 519, 3, 573, 0
53, 413, 522, 3, 573, 0
53, 413, 525, 3, 573, 0
53, 413, 528, 3, 573, 0
53, 414, 530, 3, 573, 0
53, 414, 533, 3, 573, 0
Part (mu^+) Info - X [m], Y [m], Z [m], Px [GeV], Py [GeV], Pz [GeV], Error
0.0 ,  0.0 ,  0.0 ,  0.0 ,  0.5 ,  0.5 ,  0
Part#, Row, Col, layer#, Segment#, Error
54, 186, 375, 0, 80, 0
54, 186, 378, 0, 80, 0
54, 186, 381, 0, 80, 0
54, 425, 89, 1, 126, 0
54, 425, 92, 1, 126, 0
54, 425, 95, 1, 126, 0
54, 426, 98, 1, 126, 0
54, 628, 699, 2, 288, 0
54, 629, 702, 2, 288, 0
54, 629, 705, 2, 288, 0
54, 630, 708, 2, 288, 0
54, 630, 711, 2, 288, 0
54, 19, 697, 2, 289, 0
54, 19, 699, 2, 289, 0
54, 19, 702, 2, 289, 0
54, 19, 705, 2, 289, 0
54, 19, 708, 2, 289, 0
54, 19, 711, 2, 289, 0
54, 19, 714, 2, 289, 0
54, 275, 241, 3, 529, 0
54, 275, 244, 3, 529, 0
54, 275, 247, 3, 529, 0
54, 276, 250, 3, 529, 0
54, 276, 253, 3, 529, 0
54, 276, 255, 3, 529, 0
54, 277, 258, 3, 529, 0
54, 277, 261, 3, 529, 0
54, 591, 616, 4, 757, 0
54, 592, 618, 4, 757, 0
54, 593, 621, 4, 757, 0
54, 593, 624, 4, 757, 0
54, 594, 627, 4, 757, 0
54, 594, 630, 4, 757, 0
54, 595, 633, 4, 757, 0
Part (mu^+) Info - X [m], Y [m], Z [m], Px [GeV], Py [GeV], Pz [GeV], Error
0.0 ,  0.0 ,  0.0 ,  0.0 ,  0.6 ,  0.5 ,  0
Part#, Row, Col, layer#, Segment#, Error
55, 183, 245, 0, 80, 0
55, 183, 248, 0, 80, 0
55, 183, 251, 0, 80, 0
55, 411, 612, 1, 108, 0
55, 411, 615, 1, 108, 0
55, 411, 618, 1, 108, 0
55, 580, 177, 2, 288, 0
55, 580, 180, 2, 288, 0
55, 581, 183, 2, 288, 0
55, 581, 185, 2, 288, 0
55, 185, 335, 3, 485, 0
55, 185, 338, 3, 485, 0
55, 185, 341, 3, 485, 0
55, 185, 344, 3, 485, 0
55, 185, 347, 3, 485, 0
55, 186, 350, 3, 485, 0
55, 443, 503, 4, 703, 0
55, 444, 505, 4, 703, 0
55, 444, 508, 4, 703, 0
55, 445, 511, 4, 703, 0
55, 445, 514, 4, 703, 0
55, 446, 517, 4, 703, 0
Part (mu^+) Info - X [m], Y [m], Z [m], Px [GeV], Py [GeV], Pz [GeV], Error
0.0 ,  0.0 ,  0.0 ,  0.0 ,  0.7 ,  0.5 ,  0
Part#, Row, Col, layer#, Segment#, Error
56, 181, 154, 0, 80, 0
56, 181, 157, 0, 80, 0
56, 400, 408, 1, 108, 0
56, 400, 411, 1, 108, 0
56, 401, 414, 1, 108, 0
56, 545, 609, 2, 256, 0
56, 546, 612, 2, 256, 0
56, 546, 615, 2, 256, 0
56, 547, 618, 2, 256, 0
56, 120, 631, 3, 441, 0
56, 120, 634, 3, 441, 0
56, 120, 637, 3, 441, 0
56, 120, 640, 3, 441, 0
56, 121, 643, 3, 441, 0
56, 121, 645, 3, 441, 0
56, 338, 656, 4, 649, 0
56, 338, 659, 4, 649, 0
56, 339, 662, 4, 649, 0
56, 339, 665, 4, 649, 0
56, 340, 668, 4, 649, 0
56, 340, 671, 4, 649, 0
Part (mu^+) Info - X [m], Y [m], Z [m], Px [GeV], Py [GeV], Pz [GeV], Error
0.0 ,  0.0 ,  0.0 ,  0.0 ,  0.8 ,  0.5 ,  0
Part#, Row, Col, layer#, Segment#, Error
57, 179, 83, 0, 80, 0
57, 179, 86, 0, 80, 0
57, 392, 257, 1, 108, 0
57, 393, 260, 1, 108, 0
57, 519, 331, 2, 256, 0
57, 520, 334, 2, 256, 0
57, 520, 336, 2, 256, 0
57, 72, 251, 3, 441, 0
57, 72, 254, 3, 441, 0
57, 72, 256, 3, 441, 0
57, 72, 259, 3, 441, 0
57, 72, 262, 3, 441, 0
57, 72, 265, 3, 441, 0
57, 259, 171, 4, 649, 0
57, 260, 174, 4, 649, 0
57, 260, 176, 4, 649, 0
57, 261, 179, 4, 649, 0
57, 261, 182, 4, 649, 0
Part (mu^+) Info - X [m], Y [m], Z [m], Px [GeV], Py [GeV], Pz [GeV], Error
0.0 ,  0.0 ,  0.0 ,  0.0 ,  0.9 ,  0.5 ,  0
Part#, Row, Col, layer#, Segment#, Error
58, 178, 29, 0, 80, 0
58, 178, 32, 0, 80, 0
58, 386, 138, 1, 108, 0
58, 387, 141, 1, 108, 0
58, 499, 115, 2, 256, 0
58, 500, 118, 2, 256, 0
58, 500, 121, 2, 256, 0
58, 642, 762, 3, 396, 0
58, 643, 765, 3, 396, 0
58, 644, 768, 3, 396, 0
58, 34, 759, 3, 397, 0
58, 34, 762, 3, 397, 0
58, 34, 765, 3, 397, 0
58, 34, 768, 3, 397, 0
58, 34, 771, 3, 397, 0
58, 198, 597, 4, 595, 0
58, 199, 600, 4, 595, 0
58, 199, 603, 4, 595, 0
58, 199, 606, 4, 595, 0
58, 200, 609, 4, 595, 0
Part (mu^+) Info - X [m], Y [m], Z [m], Px [GeV], Py [GeV], Pz [GeV], Error
0.0 ,  0.0 ,  0.0 ,  0.0 ,  1.0 ,  0.5 ,  0
Part#, Row, Col, layer#, Segment#, Error
59, 177, 790, 0, 64, 0
59, 177, 793, 0, 64, 0
59, 382, 44, 1, 108, 0
59, 382, 47, 1, 108, 0
59, 483, 746, 2, 224, 0
59, 484, 749, 2, 224, 0
59, 484, 751, 2, 224, 0
59, 612, 524, 3, 396, 0
59, 613, 527, 3, 396, 0
59, 613, 529, 3, 396, 0
59, 4, 521, 3, 397, 0
59, 4, 524, 3, 397, 0
59, 4, 527, 3, 397, 0
59, 4, 529, 3, 397, 0
59, 3, 532, 3, 397, 0
59, 150, 296, 4, 595, 0
59, 150, 299, 4, 595, 0
59, 150, 302, 4, 595, 0
59, 150, 305, 4, 595, 0
59, 151, 308, 4, 595, 0
